Homework 6
…
Answer: We found that the model is not the more complex, the better, but overall, when the minimal node size is equal to 8, the individual submodels seem to be better than the other groups. When mtys = 5, trees = 8, min_n = 6, model seems to yield the best performance.

Exercise 7

What is the roc_auc of your best-performing random forest model on the folds? Hint: Use collect_metrics() and arrange().

collect_metrics(rf_tune_res) %>%
  arrange(-mean)

## # A tibble: 512 x 9
##     mtry trees min_n .metric .estimator  mean     n std_err .config             
##    <int> <int> <int> <chr>   <chr>      <dbl> <int>   <dbl> <chr>               
##  1     7     5     5 roc_auc hand_till  0.705     5  0.0351 Preprocessor1_Model~
##  2     7     6     6 roc_auc hand_till  0.700     5  0.0114 Preprocessor1_Model~
##  3     8     7     7 roc_auc hand_till  0.698     5  0.0483 Preprocessor1_Model~
##  4     5     7     7 roc_auc hand_till  0.696     5  0.0392 Preprocessor1_Model~
##  5     7     5     8 roc_auc hand_till  0.693     5  0.0507 Preprocessor1_Model~
##  6     7     3     8 roc_auc hand_till  0.691     5  0.0521 Preprocessor1_Model~
##  7     8     7     3 roc_auc hand_till  0.688     5  0.0357 Preprocessor1_Model~
##  8     5     4     6 roc_auc hand_till  0.681     5  0.0198 Preprocessor1_Model~
##  9     1     5     6 roc_auc hand_till  0.681     5  0.0361 Preprocessor1_Model~
## 10     4     6     3 roc_auc hand_till  0.681     5  0.0385 Preprocessor1_Model~
## # ... with 502 more rows
…
